G04 EAGLE Gerber RS-274X export*
G75*
%MOMM*%
%FSLAX34Y34*%
%LPD*%
%INSoldermask Top*%
%IPPOS*%
%AMOC8*
5,1,8,0,0,1.08239X$1,22.5*%
G01*
%ADD10C,3.703200*%
%ADD11R,1.103200X0.903200*%
%ADD12R,1.403200X1.403200*%
%ADD13R,1.203200X0.903200*%
%ADD14R,0.803200X0.903200*%
%ADD15R,0.903200X0.803200*%
%ADD16R,0.803200X1.453200*%
%ADD17C,0.269722*%
%ADD18R,2.603200X1.043200*%
%ADD19R,1.678200X0.653200*%
%ADD20R,2.203200X1.403200*%
%ADD21R,1.303200X1.903200*%
%ADD22C,1.473200*%
%ADD23R,0.503200X0.678200*%
%ADD24R,0.503200X0.503200*%
%ADD25R,2.403200X1.753200*%
%ADD26R,0.713200X0.523200*%
%ADD27R,0.503200X0.903200*%
%ADD28R,1.853200X0.853200*%
%ADD29R,0.903200X1.203200*%
%ADD30R,1.727200X1.727200*%
%ADD31C,1.727200*%
%ADD32R,1.153200X1.053200*%
%ADD33R,0.803200X0.803200*%
%ADD34R,1.203200X2.003200*%
%ADD35R,1.253200X1.103200*%
%ADD36R,3.303200X3.303200*%
%ADD37C,0.478200*%
%ADD38R,1.103200X1.253200*%
%ADD39R,1.323200X1.573200*%
%ADD40R,1.573200X1.323200*%
%ADD41R,1.053200X0.803200*%
%ADD42R,1.663200X1.873200*%
%ADD43R,0.603200X0.903200*%
%ADD44R,0.903200X0.603200*%
%ADD45R,1.253200X0.803200*%
%ADD46R,0.503200X0.753200*%
%ADD47R,0.753200X0.503200*%
%ADD48R,1.203200X1.603200*%
%ADD49R,1.003200X0.553200*%
%ADD50R,1.953200X2.703200*%
%ADD51R,1.703200X1.503200*%
%ADD52R,0.673200X0.703200*%
%ADD53R,1.453200X0.803200*%
%ADD54C,2.703200*%
%ADD55C,2.743200*%
%ADD56R,2.903200X1.803200*%
%ADD57R,1.173200X1.583200*%
%ADD58R,1.803200X2.903200*%
%ADD59R,1.253200X0.653200*%
%ADD60R,3.653200X4.253200*%
%ADD61R,0.623200X0.703200*%
%ADD62R,1.403200X0.603200*%
%ADD63R,0.903200X1.103200*%
%ADD64R,1.203200X1.303200*%
%ADD65R,1.303200X1.203200*%
%ADD66R,1.673200X1.223200*%
%ADD67R,0.703200X1.503200*%
%ADD68R,1.203200X1.203200*%
%ADD69C,0.808000*%
%ADD70C,0.858000*%
%ADD71C,0.853200*%


D10*
X80000Y90000D03*
X80000Y390000D03*
X580000Y40000D03*
X580000Y440000D03*
D11*
X437158Y339416D03*
X437158Y352416D03*
D12*
X222754Y132386D03*
X243754Y132386D03*
D13*
X248780Y96650D03*
X248780Y115650D03*
X224780Y106150D03*
X429870Y304190D03*
X429870Y323190D03*
X405870Y313690D03*
D14*
X372960Y108290D03*
X382960Y108290D03*
X373100Y99080D03*
X383100Y99080D03*
X267538Y207242D03*
X257538Y207242D03*
D15*
X374620Y371712D03*
X374620Y381712D03*
D14*
X310400Y143350D03*
X320400Y143350D03*
X310350Y133500D03*
X320350Y133500D03*
X310500Y124050D03*
X320500Y124050D03*
X250646Y163584D03*
X240646Y163584D03*
X310600Y113200D03*
X320600Y113200D03*
D15*
X260650Y120100D03*
X260650Y110100D03*
D14*
X243450Y152080D03*
X233450Y152080D03*
X485900Y308600D03*
X475900Y308600D03*
X451000Y273500D03*
X441000Y273500D03*
X251250Y154000D03*
X261250Y154000D03*
D15*
X169500Y260900D03*
X169500Y250900D03*
X170262Y390500D03*
X170262Y380500D03*
X170100Y351500D03*
X170100Y361500D03*
X357654Y254022D03*
X357654Y264022D03*
X365800Y285300D03*
X365800Y295300D03*
X356400Y287300D03*
X356400Y277300D03*
X476084Y318514D03*
X476084Y328514D03*
D14*
X385200Y144200D03*
X395200Y144200D03*
X383400Y133600D03*
X393400Y133600D03*
X383700Y123300D03*
X393700Y123300D03*
D16*
X442400Y294670D03*
X451900Y294670D03*
X461400Y294670D03*
X461400Y319670D03*
X442400Y319670D03*
D17*
X395982Y354682D02*
X395982Y361418D01*
X398018Y361418D01*
X398018Y354682D01*
X395982Y354682D01*
X395982Y357244D02*
X398018Y357244D01*
X398018Y359806D02*
X395982Y359806D01*
X390982Y361418D02*
X390982Y354682D01*
X390982Y361418D02*
X393018Y361418D01*
X393018Y354682D01*
X390982Y354682D01*
X390982Y357244D02*
X393018Y357244D01*
X393018Y359806D02*
X390982Y359806D01*
X385982Y361418D02*
X385982Y354682D01*
X385982Y361418D02*
X388018Y361418D01*
X388018Y354682D01*
X385982Y354682D01*
X385982Y357244D02*
X388018Y357244D01*
X388018Y359806D02*
X385982Y359806D01*
X380982Y361418D02*
X380982Y354682D01*
X380982Y361418D02*
X383018Y361418D01*
X383018Y354682D01*
X380982Y354682D01*
X380982Y357244D02*
X383018Y357244D01*
X383018Y359806D02*
X380982Y359806D01*
X375982Y361418D02*
X375982Y354682D01*
X375982Y361418D02*
X378018Y361418D01*
X378018Y354682D01*
X375982Y354682D01*
X375982Y357244D02*
X378018Y357244D01*
X378018Y359806D02*
X375982Y359806D01*
X375982Y341518D02*
X375982Y334782D01*
X375982Y341518D02*
X378018Y341518D01*
X378018Y334782D01*
X375982Y334782D01*
X375982Y337344D02*
X378018Y337344D01*
X378018Y339906D02*
X375982Y339906D01*
X380982Y341518D02*
X380982Y334782D01*
X380982Y341518D02*
X383018Y341518D01*
X383018Y334782D01*
X380982Y334782D01*
X380982Y337344D02*
X383018Y337344D01*
X383018Y339906D02*
X380982Y339906D01*
X385982Y341518D02*
X385982Y334782D01*
X385982Y341518D02*
X388018Y341518D01*
X388018Y334782D01*
X385982Y334782D01*
X385982Y337344D02*
X388018Y337344D01*
X388018Y339906D02*
X385982Y339906D01*
X390982Y341518D02*
X390982Y334782D01*
X390982Y341518D02*
X393018Y341518D01*
X393018Y334782D01*
X390982Y334782D01*
X390982Y337344D02*
X393018Y337344D01*
X393018Y339906D02*
X390982Y339906D01*
X395982Y341518D02*
X395982Y334782D01*
X395982Y341518D02*
X398018Y341518D01*
X398018Y334782D01*
X395982Y334782D01*
X395982Y337344D02*
X398018Y337344D01*
X398018Y339906D02*
X395982Y339906D01*
D18*
X387000Y348100D03*
D19*
X344180Y156500D03*
X344180Y163000D03*
X344180Y169500D03*
X344180Y176000D03*
X344180Y182500D03*
X344180Y189000D03*
X344180Y195500D03*
X285420Y195500D03*
X285420Y189000D03*
X285420Y182500D03*
X285420Y176000D03*
X285420Y169500D03*
X285420Y163000D03*
X285420Y156500D03*
D20*
X188200Y390500D03*
X188200Y370500D03*
X188200Y350500D03*
X188200Y330500D03*
X188200Y310500D03*
X188200Y290500D03*
X188200Y270500D03*
X188200Y250500D03*
X338200Y250500D03*
X338200Y270500D03*
X338200Y290500D03*
X338200Y310500D03*
X338200Y330500D03*
X338200Y350500D03*
X338200Y370500D03*
X338200Y390500D03*
D21*
X213200Y235500D03*
X233200Y235500D03*
X253200Y235500D03*
X273200Y235500D03*
X293200Y235500D03*
X313200Y235500D03*
D22*
X496806Y310606D03*
D23*
X137800Y355120D03*
X142800Y355120D03*
X147800Y355120D03*
X147800Y371880D03*
X137800Y371880D03*
D24*
X148000Y339500D03*
X143000Y339500D03*
X143000Y333500D03*
X148000Y333500D03*
D25*
X147400Y59100D03*
X188400Y59100D03*
D22*
X141900Y268800D03*
X602946Y160918D03*
X603394Y146556D03*
X142000Y284600D03*
X142000Y302500D03*
X142100Y318700D03*
D14*
X364900Y107700D03*
X354900Y107700D03*
X471500Y266600D03*
X481500Y266600D03*
D26*
X482600Y255900D03*
X472600Y255900D03*
D14*
X574720Y298440D03*
X584720Y298440D03*
X559120Y269340D03*
X569120Y269340D03*
D27*
X381100Y229700D03*
X386100Y229700D03*
X391100Y229700D03*
X391100Y250700D03*
X386100Y250700D03*
X381100Y250700D03*
D28*
X386100Y240200D03*
D29*
X397800Y288900D03*
X378800Y288900D03*
X388300Y264900D03*
D15*
X409450Y279030D03*
X409450Y289030D03*
D14*
X398300Y261180D03*
X408300Y261180D03*
D29*
X350100Y211600D03*
X369100Y211600D03*
X359600Y235600D03*
D15*
X369708Y271938D03*
X369708Y261938D03*
D30*
X600800Y334000D03*
D31*
X600800Y359400D03*
X600800Y384800D03*
X600800Y410200D03*
D14*
X570270Y309430D03*
X560270Y309430D03*
D32*
X554350Y124850D03*
X568850Y124850D03*
X568850Y136350D03*
X554350Y136350D03*
D33*
X519400Y118100D03*
X519400Y107100D03*
X580746Y141100D03*
X580746Y130100D03*
X555800Y115022D03*
X566800Y115022D03*
X519300Y128700D03*
X530300Y128700D03*
X555100Y228000D03*
X555100Y239000D03*
X462000Y175600D03*
X451000Y175600D03*
X467300Y145550D03*
X467300Y134550D03*
X546484Y199270D03*
X546484Y188270D03*
X541600Y127400D03*
X541600Y116400D03*
D34*
X542300Y236000D03*
X517300Y236000D03*
D33*
X542000Y262500D03*
X542000Y251500D03*
X517200Y261100D03*
X517200Y250100D03*
X585576Y213412D03*
X596576Y213412D03*
D35*
X556000Y208600D03*
X572000Y208600D03*
D36*
X507000Y176500D03*
D37*
X507000Y204000D03*
X512000Y204000D03*
X517000Y204000D03*
X522000Y204000D03*
X527000Y204000D03*
X529500Y209000D03*
X519500Y209000D03*
X514500Y209000D03*
X509500Y209000D03*
X504500Y209000D03*
X502000Y204000D03*
X497000Y204000D03*
X499500Y209000D03*
X494500Y209000D03*
X489500Y209000D03*
X487000Y204000D03*
X482000Y204000D03*
X474500Y204000D03*
X474500Y199000D03*
X479500Y196500D03*
X474500Y194000D03*
X474500Y189000D03*
X474500Y184000D03*
X474500Y179000D03*
X474500Y174000D03*
X474500Y169000D03*
X474500Y164000D03*
X474500Y159000D03*
X474500Y154000D03*
X474500Y149000D03*
X479500Y156500D03*
X479500Y161500D03*
X479500Y166500D03*
X479500Y171500D03*
X479500Y176500D03*
X479500Y181500D03*
X479500Y186500D03*
X487000Y149000D03*
X484500Y144000D03*
X479500Y144000D03*
X489500Y144000D03*
X492000Y149000D03*
X494500Y144000D03*
X497000Y149000D03*
X502000Y149000D03*
X499500Y144000D03*
X504500Y144000D03*
X509500Y144000D03*
X514500Y144000D03*
X517000Y149000D03*
X522000Y149000D03*
X524500Y144000D03*
X527000Y149000D03*
X534500Y144000D03*
X534500Y209000D03*
X534500Y196500D03*
X534500Y191500D03*
X534500Y186500D03*
X539500Y184000D03*
X534500Y181500D03*
X539500Y179000D03*
X534500Y176500D03*
X539500Y174000D03*
X534500Y171500D03*
X539500Y169000D03*
X534500Y166500D03*
X539500Y164000D03*
X534500Y161500D03*
X539500Y159000D03*
X539500Y154000D03*
X539500Y149000D03*
X534500Y201500D03*
X539500Y189000D03*
D33*
X496302Y121418D03*
X496302Y110418D03*
X519380Y96160D03*
X530380Y96160D03*
X519200Y81000D03*
X530200Y81000D03*
X567500Y162000D03*
X567500Y173000D03*
X555500Y162000D03*
X555500Y173000D03*
D38*
X448200Y247200D03*
X448200Y231200D03*
D33*
X601010Y197178D03*
X601010Y186178D03*
D15*
X459900Y237100D03*
X459900Y227100D03*
D39*
X387070Y422500D03*
X417070Y422500D03*
D40*
X432800Y392910D03*
X432800Y422910D03*
X482564Y393240D03*
X482564Y363240D03*
D39*
X548990Y326980D03*
X518990Y326980D03*
D41*
X417700Y381800D03*
X417700Y362800D03*
X442700Y372300D03*
D42*
X402900Y398600D03*
X359900Y398600D03*
D14*
X388000Y436600D03*
X378000Y436600D03*
D15*
X374300Y426000D03*
X374300Y416000D03*
D43*
X367450Y436700D03*
X360450Y436700D03*
D44*
X197700Y117450D03*
X197700Y124450D03*
D14*
X172700Y91800D03*
X162700Y91800D03*
X193400Y92900D03*
X183400Y92900D03*
X209030Y104400D03*
X199030Y104400D03*
D45*
X168700Y109400D03*
X168700Y128400D03*
X146700Y118900D03*
D22*
X142700Y90900D03*
X209200Y92300D03*
X401600Y437700D03*
X352100Y456300D03*
D46*
X351300Y120500D03*
X356300Y120500D03*
X361300Y120500D03*
X366300Y120500D03*
X371300Y120500D03*
D47*
X373300Y127500D03*
X373300Y132500D03*
X373300Y137500D03*
D46*
X371300Y144500D03*
X366300Y144500D03*
X361300Y144500D03*
X356300Y144500D03*
X351300Y144500D03*
D47*
X349300Y137500D03*
X349300Y132500D03*
X349300Y127500D03*
D48*
X398000Y162000D03*
X388500Y184000D03*
X407500Y184000D03*
D14*
X450800Y260400D03*
X460800Y260400D03*
X382100Y195900D03*
X372100Y195900D03*
D49*
X503000Y295050D03*
X503000Y288550D03*
X503000Y282050D03*
X503000Y275550D03*
X533000Y275550D03*
X533000Y282050D03*
X533000Y288550D03*
X533000Y295050D03*
D50*
X518000Y285300D03*
D15*
X370800Y172300D03*
X370800Y182300D03*
D22*
X392900Y195750D03*
X422520Y181378D03*
D15*
X369500Y316100D03*
X369500Y326100D03*
X385040Y371612D03*
X385040Y381612D03*
X391800Y315900D03*
X391800Y325900D03*
D14*
X367000Y358500D03*
X357000Y358500D03*
D15*
X382500Y315800D03*
X382500Y325800D03*
D51*
X422500Y462200D03*
X422500Y443200D03*
D52*
X557182Y342904D03*
X557182Y355904D03*
X535482Y349404D03*
D14*
X571858Y332734D03*
X581858Y332734D03*
X562200Y362200D03*
X572200Y362200D03*
D53*
X556710Y392238D03*
X556710Y373138D03*
X577710Y382688D03*
D54*
X459300Y416400D03*
D55*
X459300Y456400D03*
D54*
X499300Y416400D03*
X499300Y456400D03*
X539300Y416400D03*
X539300Y456400D03*
D11*
X145500Y163700D03*
X145500Y150700D03*
X156800Y163600D03*
X156800Y150600D03*
X168300Y163300D03*
X168300Y150300D03*
D56*
X189750Y168450D03*
X189750Y140450D03*
D11*
X146400Y199600D03*
X146400Y212600D03*
X157600Y199700D03*
X157600Y212700D03*
X168600Y199700D03*
X168600Y212700D03*
D56*
X190200Y192800D03*
X190200Y220800D03*
D57*
X222600Y176338D03*
X241200Y176338D03*
X222946Y194808D03*
X241546Y194808D03*
D30*
X397700Y462100D03*
D31*
X372300Y462100D03*
D58*
X531310Y381450D03*
X503310Y381450D03*
D22*
X430000Y251500D03*
X423300Y236500D03*
X423608Y222254D03*
X425424Y206738D03*
D59*
X409600Y119950D03*
X409600Y107250D03*
X409600Y94550D03*
X409600Y81850D03*
X466600Y81850D03*
X466600Y94550D03*
X466600Y107250D03*
X466600Y119950D03*
D60*
X438100Y100900D03*
D43*
X584550Y287200D03*
X591550Y287200D03*
D61*
X600200Y297250D03*
X600200Y286750D03*
D22*
X568000Y285700D03*
X603354Y313460D03*
X260200Y189200D03*
D62*
X592610Y80684D03*
X592610Y87184D03*
X592610Y93684D03*
X573610Y93684D03*
X573610Y80684D03*
D63*
X562210Y80322D03*
X549210Y80322D03*
X592810Y71500D03*
X605810Y71500D03*
X587600Y108194D03*
X600600Y108194D03*
D22*
X477692Y297846D03*
D11*
X406154Y369512D03*
X406154Y382512D03*
D15*
X394808Y381516D03*
X394808Y371516D03*
D11*
X362800Y426100D03*
X362800Y413100D03*
D63*
X413482Y338454D03*
X426482Y338454D03*
X413382Y352432D03*
X426382Y352432D03*
X367700Y348000D03*
X354700Y348000D03*
D11*
X490500Y291200D03*
X490500Y278200D03*
X140970Y250340D03*
X140970Y237340D03*
X285436Y133766D03*
X285436Y120766D03*
X272228Y133516D03*
X272228Y120516D03*
X427228Y291996D03*
X427228Y278996D03*
X585248Y309310D03*
X585248Y322310D03*
X184150Y109070D03*
X184150Y122070D03*
D63*
X473306Y348234D03*
X486306Y348234D03*
D40*
X460248Y363206D03*
X460248Y393206D03*
D15*
X605028Y91868D03*
X605028Y81868D03*
D14*
X550498Y96012D03*
X560498Y96012D03*
D15*
X598678Y128444D03*
X598678Y118444D03*
D64*
X483000Y227500D03*
X483000Y244500D03*
X567000Y227500D03*
X567000Y244500D03*
D65*
X440830Y195000D03*
X423830Y195000D03*
D64*
X589720Y199720D03*
X589720Y182720D03*
X471310Y226050D03*
X471310Y243050D03*
X153440Y251620D03*
X153440Y234620D03*
D65*
X386000Y216000D03*
X403000Y216000D03*
D64*
X402180Y247720D03*
X402180Y230720D03*
D66*
X546720Y295770D03*
X546720Y279770D03*
D67*
X490370Y36590D03*
D68*
X505370Y36590D03*
D69*
X586768Y147650D03*
X561962Y199570D03*
D70*
X540400Y78000D03*
D69*
X145500Y138200D03*
X152500Y137900D03*
X159800Y138300D03*
X157900Y131500D03*
X151600Y130700D03*
X143300Y131200D03*
X133300Y140400D03*
X133600Y132900D03*
X133000Y125400D03*
X133400Y118300D03*
X133400Y111800D03*
X134100Y104800D03*
X141346Y103116D03*
X450668Y326776D03*
X580500Y361100D03*
X574846Y391556D03*
X169900Y140100D03*
X142100Y72000D03*
X148900Y72000D03*
X579700Y369500D03*
X606300Y62950D03*
X557300Y14700D03*
X232890Y142478D03*
X552900Y269000D03*
D70*
X461900Y312300D03*
X458200Y306348D03*
D69*
X531004Y102704D03*
X530858Y87848D03*
X409600Y76400D03*
X450400Y179300D03*
X180914Y462062D03*
X130100Y356300D03*
X249122Y207054D03*
X577015Y118602D03*
X541600Y112600D03*
X502240Y106190D03*
X338600Y241500D03*
X155300Y422100D03*
X165398Y412754D03*
X373200Y240300D03*
X403150Y224304D03*
X595328Y181346D03*
X561600Y173200D03*
X573646Y243316D03*
X599146Y244316D03*
X272400Y95600D03*
X264400Y95600D03*
X323400Y91600D03*
X314400Y82600D03*
X314400Y74600D03*
X314400Y66600D03*
X323400Y66600D03*
X323400Y74600D03*
X323400Y82600D03*
X314400Y90600D03*
X314400Y97600D03*
X323400Y98600D03*
X331400Y98600D03*
X331400Y91600D03*
X331400Y82600D03*
X331400Y74600D03*
X331400Y66600D03*
X314400Y59600D03*
X323400Y59600D03*
X331400Y59600D03*
X339400Y59600D03*
X339400Y66600D03*
X339400Y74600D03*
X339400Y82600D03*
X339400Y91600D03*
X163400Y72600D03*
X172400Y72600D03*
X348400Y87600D03*
X356400Y87600D03*
X432400Y107600D03*
X287000Y416000D03*
X377400Y280600D03*
X599000Y277000D03*
X139716Y450192D03*
X365700Y313200D03*
X462616Y217776D03*
X268082Y100680D03*
X131116Y312236D03*
X130354Y275660D03*
X165152Y298774D03*
D70*
X474482Y247932D03*
D69*
X541020Y88138D03*
X474598Y130350D03*
X357688Y133510D03*
X505758Y358790D03*
X546314Y188182D03*
D71*
X353206Y350172D03*
X367919Y369951D03*
D69*
X583111Y87360D03*
X358578Y416794D03*
X397624Y299578D03*
D71*
X427672Y331946D03*
D69*
X202014Y220696D03*
X322782Y183452D03*
X249290Y87800D03*
X217360Y82310D03*
X217360Y75310D03*
X217860Y68310D03*
X218360Y60810D03*
X210860Y60310D03*
X210360Y67810D03*
X209860Y74810D03*
X208860Y80810D03*
X203360Y74310D03*
X202860Y45310D03*
X195360Y44810D03*
X187360Y44310D03*
X184360Y38810D03*
X184360Y30310D03*
X176360Y30310D03*
X170360Y30310D03*
X163360Y30310D03*
X162860Y36810D03*
X162860Y43810D03*
X169860Y44310D03*
X170360Y37310D03*
X177360Y37310D03*
X177860Y43810D03*
X154360Y43810D03*
X147360Y43810D03*
X140360Y43810D03*
X133860Y43310D03*
X129360Y38310D03*
X136860Y37310D03*
X144360Y37310D03*
X144360Y30310D03*
X137860Y30310D03*
X131360Y30310D03*
X242860Y86310D03*
X243860Y77810D03*
X243360Y70810D03*
X243360Y63810D03*
X243360Y57310D03*
X249860Y53810D03*
X260360Y46810D03*
X259360Y40310D03*
X259860Y32810D03*
X260360Y24810D03*
X261360Y16810D03*
X269860Y61810D03*
X274400Y88600D03*
X274900Y81600D03*
X274900Y74100D03*
X274900Y67100D03*
X269400Y69600D03*
X262400Y69600D03*
X255400Y69600D03*
X249400Y74600D03*
X249400Y81600D03*
X255400Y77100D03*
X262400Y77100D03*
X268900Y77600D03*
X255290Y84300D03*
X262290Y84300D03*
X269290Y84300D03*
X268290Y90800D03*
X259790Y90300D03*
X249790Y67300D03*
X256290Y62800D03*
X263290Y62300D03*
X263290Y55800D03*
X257290Y55300D03*
X250290Y60300D03*
X301400Y91100D03*
X301900Y84100D03*
X301900Y77100D03*
X307900Y91100D03*
X308400Y83600D03*
X308400Y75600D03*
X301900Y68600D03*
X308400Y68600D03*
X301900Y61600D03*
X308400Y61100D03*
X403650Y28570D03*
X403650Y20570D03*
X412650Y20570D03*
X412650Y28570D03*
X420650Y28570D03*
X421650Y20570D03*
X429650Y19570D03*
X428650Y28570D03*
X437650Y28570D03*
X445650Y27570D03*
X454650Y27570D03*
X455650Y19570D03*
X447650Y19570D03*
X438650Y19570D03*
X550300Y18700D03*
X548300Y27700D03*
X548300Y40700D03*
X547300Y52700D03*
X548300Y62700D03*
X403650Y36570D03*
X403650Y43570D03*
X412650Y37570D03*
X420650Y37570D03*
X428650Y38570D03*
X437650Y37570D03*
X446650Y37570D03*
X453650Y37570D03*
X403650Y50570D03*
X403650Y58570D03*
X410650Y58570D03*
X410650Y50570D03*
X411650Y44570D03*
X420650Y45570D03*
X427650Y45570D03*
X436650Y45570D03*
X444650Y45570D03*
X452650Y44570D03*
X459650Y42570D03*
X459650Y32570D03*
X458650Y51570D03*
X451650Y52570D03*
X442650Y52570D03*
X434650Y52570D03*
X427650Y52570D03*
X418650Y52570D03*
X418650Y58570D03*
X407650Y65570D03*
X415650Y65570D03*
X425650Y65570D03*
X425650Y58570D03*
X433650Y58570D03*
X431650Y65570D03*
X440650Y65570D03*
X441650Y58570D03*
X449650Y59570D03*
X447650Y66570D03*
X455650Y65570D03*
X457650Y58570D03*
X245360Y15810D03*
X253360Y15810D03*
X268360Y15810D03*
X271800Y181100D03*
X170462Y266748D03*
X393700Y165300D03*
X466800Y226500D03*
X494138Y79182D03*
X497062Y86266D03*
X520800Y197800D03*
X164028Y322624D03*
X490750Y263650D03*
X164328Y310634D03*
X274600Y207508D03*
X501900Y79900D03*
X419000Y133700D03*
X547700Y158700D03*
X485800Y79200D03*
X377200Y162300D03*
X492700Y201600D03*
X361700Y162950D03*
X505666Y198730D03*
X359166Y175042D03*
X495838Y237468D03*
X391600Y91500D03*
X337796Y141112D03*
X498400Y196600D03*
X354866Y168642D03*
X492750Y246500D03*
X402900Y134500D03*
X486800Y184400D03*
X451600Y161100D03*
X474000Y87970D03*
X360274Y322984D03*
X466300Y189100D03*
X474194Y101092D03*
X486800Y170100D03*
D70*
X420500Y75800D03*
D69*
X448200Y168000D03*
X231300Y414800D03*
X488600Y155100D03*
D70*
X457800Y76300D03*
D69*
X131050Y294850D03*
X449400Y153800D03*
X477016Y121826D03*
X168500Y224400D03*
X365000Y89300D03*
X469200Y153400D03*
X360000Y201000D03*
X394020Y207090D03*
X494938Y93826D03*
X496300Y155000D03*
X384000Y91600D03*
X360254Y224192D03*
X498420Y129490D03*
X375454Y307784D03*
X503800Y156400D03*
X381100Y143100D03*
X398500Y100500D03*
X166025Y283040D03*
X533800Y151100D03*
X601408Y146786D03*
X417592Y285362D03*
X557292Y247508D03*
X528700Y157000D03*
X376390Y90770D03*
X366446Y133600D03*
X166146Y273008D03*
X398700Y273600D03*
X600970Y159524D03*
X533138Y253358D03*
X526810Y165740D03*
X579492Y167700D03*
X399700Y91400D03*
X526812Y173482D03*
X178900Y414400D03*
X579700Y181700D03*
X528008Y246412D03*
X468400Y303600D03*
X170894Y99848D03*
X529680Y180490D03*
X372054Y391808D03*
X211300Y411100D03*
X331800Y412700D03*
X527540Y187770D03*
X266900Y220100D03*
X522412Y268160D03*
X417746Y272584D03*
D70*
X253610Y141512D03*
D69*
X546400Y150800D03*
D70*
X459700Y245600D03*
D69*
X485600Y214800D03*
X528800Y198200D03*
D70*
X288900Y144100D03*
X356350Y157192D03*
X586346Y248440D03*
D69*
X354500Y96200D03*
X409500Y145100D03*
X412900Y208000D03*
D70*
X444600Y138600D03*
X386100Y307400D03*
D69*
X468400Y174600D03*
D70*
X563938Y218200D03*
D69*
X271000Y149400D03*
X366100Y334850D03*
X360850Y192100D03*
X413258Y304384D03*
X193400Y81500D03*
X381490Y207210D03*
D70*
X217400Y151900D03*
D69*
X360100Y336100D03*
X361600Y330600D03*
X417258Y293884D03*
D70*
X223650Y152150D03*
X212900Y147150D03*
X212400Y140900D03*
D69*
X376910Y209340D03*
X372520Y207320D03*
X417258Y299634D03*
X410508Y308884D03*
X217200Y363400D03*
X211300Y391000D03*
X366300Y280700D03*
X299700Y176000D03*
X546200Y173700D03*
X221450Y414050D03*
X451600Y283338D03*
X474254Y113754D03*
X503528Y116296D03*
X474054Y276200D03*
X344600Y466000D03*
D70*
X130500Y332386D03*
X131000Y341474D03*
X129678Y404400D03*
X138066Y404300D03*
X131400Y162400D03*
X131400Y169300D03*
X131400Y176100D03*
X131500Y182900D03*
X131500Y189600D03*
X166500Y173900D03*
X166500Y181100D03*
X131700Y220100D03*
X131600Y213100D03*
X132000Y206700D03*
X131600Y200200D03*
X174800Y200300D03*
D69*
X371700Y448706D03*
X480338Y281394D03*
X416560Y391668D03*
X383087Y448500D03*
X592940Y143138D03*
X532215Y261062D03*
X394750Y448550D03*
X540300Y306500D03*
X605546Y98288D03*
X407100Y449500D03*
X538874Y317702D03*
X542357Y97748D03*
X130792Y241862D03*
X555000Y255000D03*
X542600Y343600D03*
X486400Y162500D03*
X411800Y101400D03*
X459196Y200604D03*
X459250Y192650D03*
X499300Y230522D03*
X484100Y177300D03*
X451166Y130954D03*
X502250Y262450D03*
X358700Y446500D03*
X602488Y205994D03*
X518414Y359156D03*
X514350Y353822D03*
X521716Y353568D03*
X513210Y198080D03*
D71*
X206000Y153750D03*
D69*
X463864Y252560D03*
X408216Y195362D03*
X593850Y172488D03*
X574750Y352350D03*
X407700Y338400D03*
X436600Y446800D03*
X572450Y317750D03*
X588590Y221300D03*
D71*
X502158Y242062D03*
D69*
X482600Y191000D03*
X510800Y218000D03*
X592492Y228884D03*
X165360Y243172D03*
X430800Y134000D03*
X507806Y341180D03*
X559098Y318952D03*
X573400Y192500D03*
X567700Y285300D03*
X132000Y437400D03*
X157712Y408486D03*
X593016Y135458D03*
D70*
X584708Y70934D03*
D69*
X559054Y67564D03*
X568198Y344678D03*
X562154Y300352D03*
X580914Y220644D03*
D70*
X574290Y70934D03*
D69*
X448150Y193980D03*
X484550Y198380D03*
M02*
